	channel_count	characteristics_ch1.0.cell type	characteristics_ch1.0.developmental stage	characteristics_ch1.1.cell line	characteristics_ch1.1.cell type	characteristics_ch1.1.tissue	contact_address	contact_city	contact_country	contact_institute	contact_name	contact_zip/postal_code	data_processing	data_row_count	description	extract_protocol_ch1	geo_accession	hyb_protocol	label_ch1	label_protocol_ch1	last_update_date	molecule_ch1	organism_ch1	platform_id	scan_protocol	series_id	source_name_ch1	status	submission_date	supplementary_file	taxid_ch1	title	type
GSM726928	1		Metaphase II Oocyte		oocyte		Dr Aiguader 88	Barcelona	Spain	CMRB	Stephanie,,Boue	08003	Statistical analysis of the data was performed using the affy package in R (Gautier et al., 2004). Briefly, raw CEL files (which will be submitted to the GEO database upon manuscript acceptance) were imported with gene annotation from NetAffix and data was normalized with GCRMA and summarized at the gene level (32,321 genes). We performed gene expression profiles in 2 batches, and corrected for batch effect using the ComBat algorithm in R (Johnson et al., 2007).	32321	Oocytes were collected from preovulatory follicle by follicular punction after controlled ovarian hyperstimulation, and the cumulus oocytes complexes were allowed to recover for 2 h in collection medium G.1 (Vitrolife AB, Goteborg, Sweden) at 37 °C and 6% CO2. Subsequently, cumulus cells were removed by exposure to hyaluronidase (80Ui/ml; Hyase, Vitrolife AB, Goteborg, Sweden) and mild pipetting. Denuded oocytes were visually evaluated, and those arrested in the metaphase of the second meiotic division (MII) were allocated to this study.,Dezoned oocytes and embryos were immediately plunged in 45 µl of Lysis Buffer (20 mM DTT, 10 mM TrisHCl, 0.5% SDS, 1 mg/ml Proteinase K) preheated at 65°C. The tube was maintained at 65°C for 15 minutes and placed at -80°C for later processing.	RNA from single oocytes and embryos was purified using RNA Clean XP bead suspension (Agencourt Bioscience, Beckman Coulter, Danvers, USA). Genomic DNA is bound by the beads but released in only a small percentage as long as it is not sheared (data not shown). Therefore, every effort was made to minimize shearing. RNA was eluted in 20 µl water. Different percentages of the RNA isolations were used for amplification, according to the expected RNA content of embryos. From MII, 2-cell, 4-cell, 6-cell and 8-10 cell embryos, the entire RNA preparation was used (20µl); from morulas, 6 µl were used; from blastocycsts 3 µl; from ESC, 4 µl. Library preparation were performed following the distributor’s (Sigma-Aldrich, St.Louis, USA) recommendations for WTA2. SYBR Green (Sigma-Aldrich, St.Louis, USA) was added to the amplification reaction, which was performed in a CFX Real-time instrument (Bio-Rad), to monitor yield. When the SYBR Green signal reached a plateau after 21 cycles, the reaction was stopped. Amplified cDNA was purified and quantified.	GSM726928	Hybridization, washing, staining and scanning of Affymetrix Human Gene ST 1.0 arrays were performed following the manufacturer’s recommendations.	biotin	10 µg cDNA was subsequently fragmented by DNAseI and biotinylated by terminal transferase (Affymetrix, Santa Clara, USA).	Jul 19 2011	total RNA	Homo sapiens	GPL6244	Scanned images (DAT files) were transformed into intensities (CEL files) by GCOS (Affymetrix, Santa Clara, USA).	GSE29397	Metaphase II Oocyte	Public on Jul 19 2011	May 19 2011	ftp://ftp.ncbi.nlm.nih.gov/geo/samples/GSM726nnn/GSM726928/suppl/GSM726928_OOC1.CEL.gz	9606	Metaphase II Oocyte - rep1	RNA
GSM726929	1		Metaphase II Oocyte		oocyte		Dr Aiguader 88	Barcelona	Spain	CMRB	Stephanie,,Boue	08003	Statistical analysis of the data was performed using the affy package in R (Gautier et al., 2004). Briefly, raw CEL files (which will be submitted to the GEO database upon manuscript acceptance) were imported with gene annotation from NetAffix and data was normalized with GCRMA and summarized at the gene level (32,321 genes). We performed gene expression profiles in 2 batches, and corrected for batch effect using the ComBat algorithm in R (Johnson et al., 2007).	32321	Oocytes were collected from preovulatory follicle by follicular punction after controlled ovarian hyperstimulation, and the cumulus oocytes complexes were allowed to recover for 2 h in collection medium G.1 (Vitrolife AB, Goteborg, Sweden) at 37 °C and 6% CO2. Subsequently, cumulus cells were removed by exposure to hyaluronidase (80Ui/ml; Hyase, Vitrolife AB, Goteborg, Sweden) and mild pipetting. Denuded oocytes were visually evaluated, and those arrested in the metaphase of the second meiotic division (MII) were allocated to this study.,Dezoned oocytes and embryos were immediately plunged in 45 µl of Lysis Buffer (20 mM DTT, 10 mM TrisHCl, 0.5% SDS, 1 mg/ml Proteinase K) preheated at 65°C. The tube was maintained at 65°C for 15 minutes and placed at -80°C for later processing.	RNA from single oocytes and embryos was purified using RNA Clean XP bead suspension (Agencourt Bioscience, Beckman Coulter, Danvers, USA). Genomic DNA is bound by the beads but released in only a small percentage as long as it is not sheared (data not shown). Therefore, every effort was made to minimize shearing. RNA was eluted in 20 µl water. Different percentages of the RNA isolations were used for amplification, according to the expected RNA content of embryos. From MII, 2-cell, 4-cell, 6-cell and 8-10 cell embryos, the entire RNA preparation was used (20µl); from morulas, 6 µl were used; from blastocycsts 3 µl; from ESC, 4 µl. Library preparation were performed following the distributor’s (Sigma-Aldrich, St.Louis, USA) recommendations for WTA2. SYBR Green (Sigma-Aldrich, St.Louis, USA) was added to the amplification reaction, which was performed in a CFX Real-time instrument (Bio-Rad), to monitor yield. When the SYBR Green signal reached a plateau after 21 cycles, the reaction was stopped. Amplified cDNA was purified and quantified.	GSM726929	Hybridization, washing, staining and scanning of Affymetrix Human Gene ST 1.0 arrays were performed following the manufacturer’s recommendations.	biotin	10 µg cDNA was subsequently fragmented by DNAseI and biotinylated by terminal transferase (Affymetrix, Santa Clara, USA).	Jul 19 2011	total RNA	Homo sapiens	GPL6244	Scanned images (DAT files) were transformed into intensities (CEL files) by GCOS (Affymetrix, Santa Clara, USA).	GSE29397	Metaphase II Oocyte	Public on Jul 19 2011	May 19 2011	ftp://ftp.ncbi.nlm.nih.gov/geo/samples/GSM726nnn/GSM726929/suppl/GSM726929_OOC2.CEL.gz	9606	Metaphase II Oocyte - rep2	RNA
GSM726930	1		Metaphase II Oocyte		oocyte		Dr Aiguader 88	Barcelona	Spain	CMRB	Stephanie,,Boue	08003	Statistical analysis of the data was performed using the affy package in R (Gautier et al., 2004). Briefly, raw CEL files (which will be submitted to the GEO database upon manuscript acceptance) were imported with gene annotation from NetAffix and data was normalized with GCRMA and summarized at the gene level (32,321 genes). We performed gene expression profiles in 2 batches, and corrected for batch effect using the ComBat algorithm in R (Johnson et al., 2007).	32321	Oocytes were collected from preovulatory follicle by follicular punction after controlled ovarian hyperstimulation, and the cumulus oocytes complexes were allowed to recover for 2 h in collection medium G.1 (Vitrolife AB, Goteborg, Sweden) at 37 °C and 6% CO2. Subsequently, cumulus cells were removed by exposure to hyaluronidase (80Ui/ml; Hyase, Vitrolife AB, Goteborg, Sweden) and mild pipetting. Denuded oocytes were visually evaluated, and those arrested in the metaphase of the second meiotic division (MII) were allocated to this study.,Dezoned oocytes and embryos were immediately plunged in 45 µl of Lysis Buffer (20 mM DTT, 10 mM TrisHCl, 0.5% SDS, 1 mg/ml Proteinase K) preheated at 65°C. The tube was maintained at 65°C for 15 minutes and placed at -80°C for later processing.	RNA from single oocytes and embryos was purified using RNA Clean XP bead suspension (Agencourt Bioscience, Beckman Coulter, Danvers, USA). Genomic DNA is bound by the beads but released in only a small percentage as long as it is not sheared (data not shown). Therefore, every effort was made to minimize shearing. RNA was eluted in 20 µl water. Different percentages of the RNA isolations were used for amplification, according to the expected RNA content of embryos. From MII, 2-cell, 4-cell, 6-cell and 8-10 cell embryos, the entire RNA preparation was used (20µl); from morulas, 6 µl were used; from blastocycsts 3 µl; from ESC, 4 µl. Library preparation were performed following the distributor’s (Sigma-Aldrich, St.Louis, USA) recommendations for WTA2. SYBR Green (Sigma-Aldrich, St.Louis, USA) was added to the amplification reaction, which was performed in a CFX Real-time instrument (Bio-Rad), to monitor yield. When the SYBR Green signal reached a plateau after 21 cycles, the reaction was stopped. Amplified cDNA was purified and quantified.	GSM726930	Hybridization, washing, staining and scanning of Affymetrix Human Gene ST 1.0 arrays were performed following the manufacturer’s recommendations.	biotin	10 µg cDNA was subsequently fragmented by DNAseI and biotinylated by terminal transferase (Affymetrix, Santa Clara, USA).	Jul 19 2011	total RNA	Homo sapiens	GPL6244	Scanned images (DAT files) were transformed into intensities (CEL files) by GCOS (Affymetrix, Santa Clara, USA).	GSE29397	Metaphase II Oocyte	Public on Jul 19 2011	May 19 2011	ftp://ftp.ncbi.nlm.nih.gov/geo/samples/GSM726nnn/GSM726930/suppl/GSM726930_OOC3.CEL.gz	9606	Metaphase II Oocyte - rep3	RNA
GSM726931	1		2-cell stage human embryo			preimplantation embryo	Dr Aiguader 88	Barcelona	Spain	CMRB	Stephanie,,Boue	08003	Statistical analysis of the data was performed using the affy package in R (Gautier et al., 2004). Briefly, raw CEL files (which will be submitted to the GEO database upon manuscript acceptance) were imported with gene annotation from NetAffix and data was normalized with GCRMA and summarized at the gene level (32,321 genes). We performed gene expression profiles in 2 batches, and corrected for batch effect using the ComBat algorithm in R (Johnson et al., 2007).	32321	All embryos were frozen at the pronuclear stage, 18 to 20 h after insemination. After thawing, embryos were allowed to develop until the required stage in a sequential culture system (G1/G2, Vitrolife AB, Goteborg, Sweden) system, at 37°C and 6% CO2. Embryos were monitored every 12 h to detect developmental progression. Once the embryos reached the appropriate stage of development, their zona pellucida (ZP) was removed by exposure to pronase (5mg/ml; Roche, Basel, Switzerland) at 37°C.,Dezoned oocytes and embryos were immediately plunged in 45 µl of Lysis Buffer (20 mM DTT, 10 mM TrisHCl, 0.5% SDS, 1 mg/ml Proteinase K) preheated at 65°C. The tube was maintained at 65°C for 15 minutes and placed at -80°C for later processing.	RNA from single oocytes and embryos was purified using RNA Clean XP bead suspension (Agencourt Bioscience, Beckman Coulter, Danvers, USA). Genomic DNA is bound by the beads but released in only a small percentage as long as it is not sheared (data not shown). Therefore, every effort was made to minimize shearing. RNA was eluted in 20 µl water. Different percentages of the RNA isolations were used for amplification, according to the expected RNA content of embryos. From MII, 2-cell, 4-cell, 6-cell and 8-10 cell embryos, the entire RNA preparation was used (20µl); from morulas, 6 µl were used; from blastocycsts 3 µl; from ESC, 4 µl. Library preparation were performed following the distributor’s (Sigma-Aldrich, St.Louis, USA) recommendations for WTA2. SYBR Green (Sigma-Aldrich, St.Louis, USA) was added to the amplification reaction, which was performed in a CFX Real-time instrument (Bio-Rad), to monitor yield. When the SYBR Green signal reached a plateau after 21 cycles, the reaction was stopped. Amplified cDNA was purified and quantified.	GSM726931	Hybridization, washing, staining and scanning of Affymetrix Human Gene ST 1.0 arrays were performed following the manufacturer’s recommendations.	biotin	10 µg cDNA was subsequently fragmented by DNAseI and biotinylated by terminal transferase (Affymetrix, Santa Clara, USA).	Jul 19 2011	total RNA	Homo sapiens	GPL6244	Scanned images (DAT files) were transformed into intensities (CEL files) by GCOS (Affymetrix, Santa Clara, USA).	GSE29397	2-cell stage human embryo	Public on Jul 19 2011	May 19 2011	ftp://ftp.ncbi.nlm.nih.gov/geo/samples/GSM726nnn/GSM726931/suppl/GSM726931_2C1.CEL.gz	9606	2-cell stage human embryo - rep1	RNA
GSM726932	1		2-cell stage human embryo			preimplantation embryo	Dr Aiguader 88	Barcelona	Spain	CMRB	Stephanie,,Boue	08003	Statistical analysis of the data was performed using the affy package in R (Gautier et al., 2004). Briefly, raw CEL files (which will be submitted to the GEO database upon manuscript acceptance) were imported with gene annotation from NetAffix and data was normalized with GCRMA and summarized at the gene level (32,321 genes). We performed gene expression profiles in 2 batches, and corrected for batch effect using the ComBat algorithm in R (Johnson et al., 2007).	32321	All embryos were frozen at the pronuclear stage, 18 to 20 h after insemination. After thawing, embryos were allowed to develop until the required stage in a sequential culture system (G1/G2, Vitrolife AB, Goteborg, Sweden) system, at 37°C and 6% CO2. Embryos were monitored every 12 h to detect developmental progression. Once the embryos reached the appropriate stage of development, their zona pellucida (ZP) was removed by exposure to pronase (5mg/ml; Roche, Basel, Switzerland) at 37°C.,Dezoned oocytes and embryos were immediately plunged in 45 µl of Lysis Buffer (20 mM DTT, 10 mM TrisHCl, 0.5% SDS, 1 mg/ml Proteinase K) preheated at 65°C. The tube was maintained at 65°C for 15 minutes and placed at -80°C for later processing.	RNA from single oocytes and embryos was purified using RNA Clean XP bead suspension (Agencourt Bioscience, Beckman Coulter, Danvers, USA). Genomic DNA is bound by the beads but released in only a small percentage as long as it is not sheared (data not shown). Therefore, every effort was made to minimize shearing. RNA was eluted in 20 µl water. Different percentages of the RNA isolations were used for amplification, according to the expected RNA content of embryos. From MII, 2-cell, 4-cell, 6-cell and 8-10 cell embryos, the entire RNA preparation was used (20µl); from morulas, 6 µl were used; from blastocycsts 3 µl; from ESC, 4 µl. Library preparation were performed following the distributor’s (Sigma-Aldrich, St.Louis, USA) recommendations for WTA2. SYBR Green (Sigma-Aldrich, St.Louis, USA) was added to the amplification reaction, which was performed in a CFX Real-time instrument (Bio-Rad), to monitor yield. When the SYBR Green signal reached a plateau after 21 cycles, the reaction was stopped. Amplified cDNA was purified and quantified.	GSM726932	Hybridization, washing, staining and scanning of Affymetrix Human Gene ST 1.0 arrays were performed following the manufacturer’s recommendations.	biotin	10 µg cDNA was subsequently fragmented by DNAseI and biotinylated by terminal transferase (Affymetrix, Santa Clara, USA).	Jul 19 2011	total RNA	Homo sapiens	GPL6244	Scanned images (DAT files) were transformed into intensities (CEL files) by GCOS (Affymetrix, Santa Clara, USA).	GSE29397	2-cell stage human embryo	Public on Jul 19 2011	May 19 2011	ftp://ftp.ncbi.nlm.nih.gov/geo/samples/GSM726nnn/GSM726932/suppl/GSM726932_2C2.CEL.gz	9606	2-cell stage human embryo - rep2	RNA
GSM726933	1		2-cell stage human embryo			preimplantation embryo	Dr Aiguader 88	Barcelona	Spain	CMRB	Stephanie,,Boue	08003	Statistical analysis of the data was performed using the affy package in R (Gautier et al., 2004). Briefly, raw CEL files (which will be submitted to the GEO database upon manuscript acceptance) were imported with gene annotation from NetAffix and data was normalized with GCRMA and summarized at the gene level (32,321 genes). We performed gene expression profiles in 2 batches, and corrected for batch effect using the ComBat algorithm in R (Johnson et al., 2007).	32321	All embryos were frozen at the pronuclear stage, 18 to 20 h after insemination. After thawing, embryos were allowed to develop until the required stage in a sequential culture system (G1/G2, Vitrolife AB, Goteborg, Sweden) system, at 37°C and 6% CO2. Embryos were monitored every 12 h to detect developmental progression. Once the embryos reached the appropriate stage of development, their zona pellucida (ZP) was removed by exposure to pronase (5mg/ml; Roche, Basel, Switzerland) at 37°C.,Dezoned oocytes and embryos were immediately plunged in 45 µl of Lysis Buffer (20 mM DTT, 10 mM TrisHCl, 0.5% SDS, 1 mg/ml Proteinase K) preheated at 65°C. The tube was maintained at 65°C for 15 minutes and placed at -80°C for later processing.	RNA from single oocytes and embryos was purified using RNA Clean XP bead suspension (Agencourt Bioscience, Beckman Coulter, Danvers, USA). Genomic DNA is bound by the beads but released in only a small percentage as long as it is not sheared (data not shown). Therefore, every effort was made to minimize shearing. RNA was eluted in 20 µl water. Different percentages of the RNA isolations were used for amplification, according to the expected RNA content of embryos. From MII, 2-cell, 4-cell, 6-cell and 8-10 cell embryos, the entire RNA preparation was used (20µl); from morulas, 6 µl were used; from blastocycsts 3 µl; from ESC, 4 µl. Library preparation were performed following the distributor’s (Sigma-Aldrich, St.Louis, USA) recommendations for WTA2. SYBR Green (Sigma-Aldrich, St.Louis, USA) was added to the amplification reaction, which was performed in a CFX Real-time instrument (Bio-Rad), to monitor yield. When the SYBR Green signal reached a plateau after 21 cycles, the reaction was stopped. Amplified cDNA was purified and quantified.	GSM726933	Hybridization, washing, staining and scanning of Affymetrix Human Gene ST 1.0 arrays were performed following the manufacturer’s recommendations.	biotin	10 µg cDNA was subsequently fragmented by DNAseI and biotinylated by terminal transferase (Affymetrix, Santa Clara, USA).	Jul 19 2011	total RNA	Homo sapiens	GPL6244	Scanned images (DAT files) were transformed into intensities (CEL files) by GCOS (Affymetrix, Santa Clara, USA).	GSE29397	2-cell stage human embryo	Public on Jul 19 2011	May 19 2011	ftp://ftp.ncbi.nlm.nih.gov/geo/samples/GSM726nnn/GSM726933/suppl/GSM726933_2C3.CEL.gz	9606	2-cell stage human embryo - rep3	RNA
GSM726934	1		4-cell stage human embryo			preimplantation embryo	Dr Aiguader 88	Barcelona	Spain	CMRB	Stephanie,,Boue	08003	Statistical analysis of the data was performed using the affy package in R (Gautier et al., 2004). Briefly, raw CEL files (which will be submitted to the GEO database upon manuscript acceptance) were imported with gene annotation from NetAffix and data was normalized with GCRMA and summarized at the gene level (32,321 genes). We performed gene expression profiles in 2 batches, and corrected for batch effect using the ComBat algorithm in R (Johnson et al., 2007).	32321	All embryos were frozen at the pronuclear stage, 18 to 20 h after insemination. After thawing, embryos were allowed to develop until the required stage in a sequential culture system (G1/G2, Vitrolife AB, Goteborg, Sweden) system, at 37°C and 6% CO2. Embryos were monitored every 12 h to detect developmental progression. Once the embryos reached the appropriate stage of development, their zona pellucida (ZP) was removed by exposure to pronase (5mg/ml; Roche, Basel, Switzerland) at 37°C.,Dezoned oocytes and embryos were immediately plunged in 45 µl of Lysis Buffer (20 mM DTT, 10 mM TrisHCl, 0.5% SDS, 1 mg/ml Proteinase K) preheated at 65°C. The tube was maintained at 65°C for 15 minutes and placed at -80°C for later processing.	RNA from single oocytes and embryos was purified using RNA Clean XP bead suspension (Agencourt Bioscience, Beckman Coulter, Danvers, USA). Genomic DNA is bound by the beads but released in only a small percentage as long as it is not sheared (data not shown). Therefore, every effort was made to minimize shearing. RNA was eluted in 20 µl water. Different percentages of the RNA isolations were used for amplification, according to the expected RNA content of embryos. From MII, 2-cell, 4-cell, 6-cell and 8-10 cell embryos, the entire RNA preparation was used (20µl); from morulas, 6 µl were used; from blastocycsts 3 µl; from ESC, 4 µl. Library preparation were performed following the distributor’s (Sigma-Aldrich, St.Louis, USA) recommendations for WTA2. SYBR Green (Sigma-Aldrich, St.Louis, USA) was added to the amplification reaction, which was performed in a CFX Real-time instrument (Bio-Rad), to monitor yield. When the SYBR Green signal reached a plateau after 21 cycles, the reaction was stopped. Amplified cDNA was purified and quantified.	GSM726934	Hybridization, washing, staining and scanning of Affymetrix Human Gene ST 1.0 arrays were performed following the manufacturer’s recommendations.	biotin	10 µg cDNA was subsequently fragmented by DNAseI and biotinylated by terminal transferase (Affymetrix, Santa Clara, USA).	Jul 19 2011	total RNA	Homo sapiens	GPL6244	Scanned images (DAT files) were transformed into intensities (CEL files) by GCOS (Affymetrix, Santa Clara, USA).	GSE29397	4-cell stage human embryo	Public on Jul 19 2011	May 19 2011	ftp://ftp.ncbi.nlm.nih.gov/geo/samples/GSM726nnn/GSM726934/suppl/GSM726934_4C1.CEL.gz	9606	4-cell stage human embryo - rep1	RNA
GSM726935	1		4-cell stage human embryo			preimplantation embryo	Dr Aiguader 88	Barcelona	Spain	CMRB	Stephanie,,Boue	08003	Statistical analysis of the data was performed using the affy package in R (Gautier et al., 2004). Briefly, raw CEL files (which will be submitted to the GEO database upon manuscript acceptance) were imported with gene annotation from NetAffix and data was normalized with GCRMA and summarized at the gene level (32,321 genes). We performed gene expression profiles in 2 batches, and corrected for batch effect using the ComBat algorithm in R (Johnson et al., 2007).	32321	All embryos were frozen at the pronuclear stage, 18 to 20 h after insemination. After thawing, embryos were allowed to develop until the required stage in a sequential culture system (G1/G2, Vitrolife AB, Goteborg, Sweden) system, at 37°C and 6% CO2. Embryos were monitored every 12 h to detect developmental progression. Once the embryos reached the appropriate stage of development, their zona pellucida (ZP) was removed by exposure to pronase (5mg/ml; Roche, Basel, Switzerland) at 37°C.,Dezoned oocytes and embryos were immediately plunged in 45 µl of Lysis Buffer (20 mM DTT, 10 mM TrisHCl, 0.5% SDS, 1 mg/ml Proteinase K) preheated at 65°C. The tube was maintained at 65°C for 15 minutes and placed at -80°C for later processing.	RNA from single oocytes and embryos was purified using RNA Clean XP bead suspension (Agencourt Bioscience, Beckman Coulter, Danvers, USA). Genomic DNA is bound by the beads but released in only a small percentage as long as it is not sheared (data not shown). Therefore, every effort was made to minimize shearing. RNA was eluted in 20 µl water. Different percentages of the RNA isolations were used for amplification, according to the expected RNA content of embryos. From MII, 2-cell, 4-cell, 6-cell and 8-10 cell embryos, the entire RNA preparation was used (20µl); from morulas, 6 µl were used; from blastocycsts 3 µl; from ESC, 4 µl. Library preparation were performed following the distributor’s (Sigma-Aldrich, St.Louis, USA) recommendations for WTA2. SYBR Green (Sigma-Aldrich, St.Louis, USA) was added to the amplification reaction, which was performed in a CFX Real-time instrument (Bio-Rad), to monitor yield. When the SYBR Green signal reached a plateau after 21 cycles, the reaction was stopped. Amplified cDNA was purified and quantified.	GSM726935	Hybridization, washing, staining and scanning of Affymetrix Human Gene ST 1.0 arrays were performed following the manufacturer’s recommendations.	biotin	10 µg cDNA was subsequently fragmented by DNAseI and biotinylated by terminal transferase (Affymetrix, Santa Clara, USA).	Jul 19 2011	total RNA	Homo sapiens	GPL6244	Scanned images (DAT files) were transformed into intensities (CEL files) by GCOS (Affymetrix, Santa Clara, USA).	GSE29397	4-cell stage human embryo	Public on Jul 19 2011	May 19 2011	ftp://ftp.ncbi.nlm.nih.gov/geo/samples/GSM726nnn/GSM726935/suppl/GSM726935_4C2.CEL.gz	9606	4-cell stage human embryo - rep2	RNA
GSM726936	1		4-cell stage human embryo			preimplantation embryo	Dr Aiguader 88	Barcelona	Spain	CMRB	Stephanie,,Boue	08003	Statistical analysis of the data was performed using the affy package in R (Gautier et al., 2004). Briefly, raw CEL files (which will be submitted to the GEO database upon manuscript acceptance) were imported with gene annotation from NetAffix and data was normalized with GCRMA and summarized at the gene level (32,321 genes). We performed gene expression profiles in 2 batches, and corrected for batch effect using the ComBat algorithm in R (Johnson et al., 2007).	32321	All embryos were frozen at the pronuclear stage, 18 to 20 h after insemination. After thawing, embryos were allowed to develop until the required stage in a sequential culture system (G1/G2, Vitrolife AB, Goteborg, Sweden) system, at 37°C and 6% CO2. Embryos were monitored every 12 h to detect developmental progression. Once the embryos reached the appropriate stage of development, their zona pellucida (ZP) was removed by exposure to pronase (5mg/ml; Roche, Basel, Switzerland) at 37°C.,Dezoned oocytes and embryos were immediately plunged in 45 µl of Lysis Buffer (20 mM DTT, 10 mM TrisHCl, 0.5% SDS, 1 mg/ml Proteinase K) preheated at 65°C. The tube was maintained at 65°C for 15 minutes and placed at -80°C for later processing.	RNA from single oocytes and embryos was purified using RNA Clean XP bead suspension (Agencourt Bioscience, Beckman Coulter, Danvers, USA). Genomic DNA is bound by the beads but released in only a small percentage as long as it is not sheared (data not shown). Therefore, every effort was made to minimize shearing. RNA was eluted in 20 µl water. Different percentages of the RNA isolations were used for amplification, according to the expected RNA content of embryos. From MII, 2-cell, 4-cell, 6-cell and 8-10 cell embryos, the entire RNA preparation was used (20µl); from morulas, 6 µl were used; from blastocycsts 3 µl; from ESC, 4 µl. Library preparation were performed following the distributor’s (Sigma-Aldrich, St.Louis, USA) recommendations for WTA2. SYBR Green (Sigma-Aldrich, St.Louis, USA) was added to the amplification reaction, which was performed in a CFX Real-time instrument (Bio-Rad), to monitor yield. When the SYBR Green signal reached a plateau after 21 cycles, the reaction was stopped. Amplified cDNA was purified and quantified.	GSM726936	Hybridization, washing, staining and scanning of Affymetrix Human Gene ST 1.0 arrays were performed following the manufacturer’s recommendations.	biotin	10 µg cDNA was subsequently fragmented by DNAseI and biotinylated by terminal transferase (Affymetrix, Santa Clara, USA).	Jul 19 2011	total RNA	Homo sapiens	GPL6244	Scanned images (DAT files) were transformed into intensities (CEL files) by GCOS (Affymetrix, Santa Clara, USA).	GSE29397	4-cell stage human embryo	Public on Jul 19 2011	May 19 2011	ftp://ftp.ncbi.nlm.nih.gov/geo/samples/GSM726nnn/GSM726936/suppl/GSM726936_4C3.CEL.gz	9606	4-cell stage human embryo - rep3	RNA
GSM726937	1		6-cell stage human embryo			preimplantation embryo	Dr Aiguader 88	Barcelona	Spain	CMRB	Stephanie,,Boue	08003	Statistical analysis of the data was performed using the affy package in R (Gautier et al., 2004). Briefly, raw CEL files (which will be submitted to the GEO database upon manuscript acceptance) were imported with gene annotation from NetAffix and data was normalized with GCRMA and summarized at the gene level (32,321 genes). We performed gene expression profiles in 2 batches, and corrected for batch effect using the ComBat algorithm in R (Johnson et al., 2007).	32321	All embryos were frozen at the pronuclear stage, 18 to 20 h after insemination. After thawing, embryos were allowed to develop until the required stage in a sequential culture system (G1/G2, Vitrolife AB, Goteborg, Sweden) system, at 37°C and 6% CO2. Embryos were monitored every 12 h to detect developmental progression. Once the embryos reached the appropriate stage of development, their zona pellucida (ZP) was removed by exposure to pronase (5mg/ml; Roche, Basel, Switzerland) at 37°C.,Dezoned oocytes and embryos were immediately plunged in 45 µl of Lysis Buffer (20 mM DTT, 10 mM TrisHCl, 0.5% SDS, 1 mg/ml Proteinase K) preheated at 65°C. The tube was maintained at 65°C for 15 minutes and placed at -80°C for later processing.	RNA from single oocytes and embryos was purified using RNA Clean XP bead suspension (Agencourt Bioscience, Beckman Coulter, Danvers, USA). Genomic DNA is bound by the beads but released in only a small percentage as long as it is not sheared (data not shown). Therefore, every effort was made to minimize shearing. RNA was eluted in 20 µl water. Different percentages of the RNA isolations were used for amplification, according to the expected RNA content of embryos. From MII, 2-cell, 4-cell, 6-cell and 8-10 cell embryos, the entire RNA preparation was used (20µl); from morulas, 6 µl were used; from blastocycsts 3 µl; from ESC, 4 µl. Library preparation were performed following the distributor’s (Sigma-Aldrich, St.Louis, USA) recommendations for WTA2. SYBR Green (Sigma-Aldrich, St.Louis, USA) was added to the amplification reaction, which was performed in a CFX Real-time instrument (Bio-Rad), to monitor yield. When the SYBR Green signal reached a plateau after 21 cycles, the reaction was stopped. Amplified cDNA was purified and quantified.	GSM726937	Hybridization, washing, staining and scanning of Affymetrix Human Gene ST 1.0 arrays were performed following the manufacturer’s recommendations.	biotin	10 µg cDNA was subsequently fragmented by DNAseI and biotinylated by terminal transferase (Affymetrix, Santa Clara, USA).	Jul 19 2011	total RNA	Homo sapiens	GPL6244	Scanned images (DAT files) were transformed into intensities (CEL files) by GCOS (Affymetrix, Santa Clara, USA).	GSE29397	6-cell stage human embryo	Public on Jul 19 2011	May 19 2011	ftp://ftp.ncbi.nlm.nih.gov/geo/samples/GSM726nnn/GSM726937/suppl/GSM726937_6C1.CEL.gz	9606	6-cell stage human embryo - rep1	RNA
GSM726938	1		6-cell stage human embryo			preimplantation embryo	Dr Aiguader 88	Barcelona	Spain	CMRB	Stephanie,,Boue	08003	Statistical analysis of the data was performed using the affy package in R (Gautier et al., 2004). Briefly, raw CEL files (which will be submitted to the GEO database upon manuscript acceptance) were imported with gene annotation from NetAffix and data was normalized with GCRMA and summarized at the gene level (32,321 genes). We performed gene expression profiles in 2 batches, and corrected for batch effect using the ComBat algorithm in R (Johnson et al., 2007).	32321	All embryos were frozen at the pronuclear stage, 18 to 20 h after insemination. After thawing, embryos were allowed to develop until the required stage in a sequential culture system (G1/G2, Vitrolife AB, Goteborg, Sweden) system, at 37°C and 6% CO2. Embryos were monitored every 12 h to detect developmental progression. Once the embryos reached the appropriate stage of development, their zona pellucida (ZP) was removed by exposure to pronase (5mg/ml; Roche, Basel, Switzerland) at 37°C.,Dezoned oocytes and embryos were immediately plunged in 45 µl of Lysis Buffer (20 mM DTT, 10 mM TrisHCl, 0.5% SDS, 1 mg/ml Proteinase K) preheated at 65°C. The tube was maintained at 65°C for 15 minutes and placed at -80°C for later processing.	RNA from single oocytes and embryos was purified using RNA Clean XP bead suspension (Agencourt Bioscience, Beckman Coulter, Danvers, USA). Genomic DNA is bound by the beads but released in only a small percentage as long as it is not sheared (data not shown). Therefore, every effort was made to minimize shearing. RNA was eluted in 20 µl water. Different percentages of the RNA isolations were used for amplification, according to the expected RNA content of embryos. From MII, 2-cell, 4-cell, 6-cell and 8-10 cell embryos, the entire RNA preparation was used (20µl); from morulas, 6 µl were used; from blastocycsts 3 µl; from ESC, 4 µl. Library preparation were performed following the distributor’s (Sigma-Aldrich, St.Louis, USA) recommendations for WTA2. SYBR Green (Sigma-Aldrich, St.Louis, USA) was added to the amplification reaction, which was performed in a CFX Real-time instrument (Bio-Rad), to monitor yield. When the SYBR Green signal reached a plateau after 21 cycles, the reaction was stopped. Amplified cDNA was purified and quantified.	GSM726938	Hybridization, washing, staining and scanning of Affymetrix Human Gene ST 1.0 arrays were performed following the manufacturer’s recommendations.	biotin	10 µg cDNA was subsequently fragmented by DNAseI and biotinylated by terminal transferase (Affymetrix, Santa Clara, USA).	Jul 19 2011	total RNA	Homo sapiens	GPL6244	Scanned images (DAT files) were transformed into intensities (CEL files) by GCOS (Affymetrix, Santa Clara, USA).	GSE29397	6-cell stage human embryo	Public on Jul 19 2011	May 19 2011	ftp://ftp.ncbi.nlm.nih.gov/geo/samples/GSM726nnn/GSM726938/suppl/GSM726938_6C2.CEL.gz	9606	6-cell stage human embryo - rep2	RNA
GSM726939	1		6-cell stage human embryo			preimplantation embryo	Dr Aiguader 88	Barcelona	Spain	CMRB	Stephanie,,Boue	08003	Statistical analysis of the data was performed using the affy package in R (Gautier et al., 2004). Briefly, raw CEL files (which will be submitted to the GEO database upon manuscript acceptance) were imported with gene annotation from NetAffix and data was normalized with GCRMA and summarized at the gene level (32,321 genes). We performed gene expression profiles in 2 batches, and corrected for batch effect using the ComBat algorithm in R (Johnson et al., 2007).	32321	All embryos were frozen at the pronuclear stage, 18 to 20 h after insemination. After thawing, embryos were allowed to develop until the required stage in a sequential culture system (G1/G2, Vitrolife AB, Goteborg, Sweden) system, at 37°C and 6% CO2. Embryos were monitored every 12 h to detect developmental progression. Once the embryos reached the appropriate stage of development, their zona pellucida (ZP) was removed by exposure to pronase (5mg/ml; Roche, Basel, Switzerland) at 37°C.,Dezoned oocytes and embryos were immediately plunged in 45 µl of Lysis Buffer (20 mM DTT, 10 mM TrisHCl, 0.5% SDS, 1 mg/ml Proteinase K) preheated at 65°C. The tube was maintained at 65°C for 15 minutes and placed at -80°C for later processing.	RNA from single oocytes and embryos was purified using RNA Clean XP bead suspension (Agencourt Bioscience, Beckman Coulter, Danvers, USA). Genomic DNA is bound by the beads but released in only a small percentage as long as it is not sheared (data not shown). Therefore, every effort was made to minimize shearing. RNA was eluted in 20 µl water. Different percentages of the RNA isolations were used for amplification, according to the expected RNA content of embryos. From MII, 2-cell, 4-cell, 6-cell and 8-10 cell embryos, the entire RNA preparation was used (20µl); from morulas, 6 µl were used; from blastocycsts 3 µl; from ESC, 4 µl. Library preparation were performed following the distributor’s (Sigma-Aldrich, St.Louis, USA) recommendations for WTA2. SYBR Green (Sigma-Aldrich, St.Louis, USA) was added to the amplification reaction, which was performed in a CFX Real-time instrument (Bio-Rad), to monitor yield. When the SYBR Green signal reached a plateau after 21 cycles, the reaction was stopped. Amplified cDNA was purified and quantified.	GSM726939	Hybridization, washing, staining and scanning of Affymetrix Human Gene ST 1.0 arrays were performed following the manufacturer’s recommendations.	biotin	10 µg cDNA was subsequently fragmented by DNAseI and biotinylated by terminal transferase (Affymetrix, Santa Clara, USA).	Jul 19 2011	total RNA	Homo sapiens	GPL6244	Scanned images (DAT files) were transformed into intensities (CEL files) by GCOS (Affymetrix, Santa Clara, USA).	GSE29397	6-cell stage human embryo	Public on Jul 19 2011	May 19 2011	ftp://ftp.ncbi.nlm.nih.gov/geo/samples/GSM726nnn/GSM726939/suppl/GSM726939_6C3.CEL.gz	9606	6-cell stage human embryo - rep3	RNA
GSM726940	1		8 to 10-cell stage human embryo			preimplantation embryo	Dr Aiguader 88	Barcelona	Spain	CMRB	Stephanie,,Boue	08003	Statistical analysis of the data was performed using the affy package in R (Gautier et al., 2004). Briefly, raw CEL files (which will be submitted to the GEO database upon manuscript acceptance) were imported with gene annotation from NetAffix and data was normalized with GCRMA and summarized at the gene level (32,321 genes). We performed gene expression profiles in 2 batches, and corrected for batch effect using the ComBat algorithm in R (Johnson et al., 2007).	32321	All embryos were frozen at the pronuclear stage, 18 to 20 h after insemination. After thawing, embryos were allowed to develop until the required stage in a sequential culture system (G1/G2, Vitrolife AB, Goteborg, Sweden) system, at 37°C and 6% CO2. Embryos were monitored every 12 h to detect developmental progression. Once the embryos reached the appropriate stage of development, their zona pellucida (ZP) was removed by exposure to pronase (5mg/ml; Roche, Basel, Switzerland) at 37°C.,Dezoned oocytes and embryos were immediately plunged in 45 µl of Lysis Buffer (20 mM DTT, 10 mM TrisHCl, 0.5% SDS, 1 mg/ml Proteinase K) preheated at 65°C. The tube was maintained at 65°C for 15 minutes and placed at -80°C for later processing.	RNA from single oocytes and embryos was purified using RNA Clean XP bead suspension (Agencourt Bioscience, Beckman Coulter, Danvers, USA). Genomic DNA is bound by the beads but released in only a small percentage as long as it is not sheared (data not shown). Therefore, every effort was made to minimize shearing. RNA was eluted in 20 µl water. Different percentages of the RNA isolations were used for amplification, according to the expected RNA content of embryos. From MII, 2-cell, 4-cell, 6-cell and 8-10 cell embryos, the entire RNA preparation was used (20µl); from morulas, 6 µl were used; from blastocycsts 3 µl; from ESC, 4 µl. Library preparation were performed following the distributor’s (Sigma-Aldrich, St.Louis, USA) recommendations for WTA2. SYBR Green (Sigma-Aldrich, St.Louis, USA) was added to the amplification reaction, which was performed in a CFX Real-time instrument (Bio-Rad), to monitor yield. When the SYBR Green signal reached a plateau after 21 cycles, the reaction was stopped. Amplified cDNA was purified and quantified.	GSM726940	Hybridization, washing, staining and scanning of Affymetrix Human Gene ST 1.0 arrays were performed following the manufacturer’s recommendations.	biotin	10 µg cDNA was subsequently fragmented by DNAseI and biotinylated by terminal transferase (Affymetrix, Santa Clara, USA).	Jul 19 2011	total RNA	Homo sapiens	GPL6244	Scanned images (DAT files) were transformed into intensities (CEL files) by GCOS (Affymetrix, Santa Clara, USA).	GSE29397	8 to 10-cell stage human embryo	Public on Jul 19 2011	May 19 2011	ftp://ftp.ncbi.nlm.nih.gov/geo/samples/GSM726nnn/GSM726940/suppl/GSM726940_8-10C1.CEL.gz	9606	8 to 10-cell stage human embryo - rep1	RNA
GSM726941	1		8 to 10-cell stage human embryo			preimplantation embryo	Dr Aiguader 88	Barcelona	Spain	CMRB	Stephanie,,Boue	08003	Statistical analysis of the data was performed using the affy package in R (Gautier et al., 2004). Briefly, raw CEL files (which will be submitted to the GEO database upon manuscript acceptance) were imported with gene annotation from NetAffix and data was normalized with GCRMA and summarized at the gene level (32,321 genes). We performed gene expression profiles in 2 batches, and corrected for batch effect using the ComBat algorithm in R (Johnson et al., 2007).	32321	All embryos were frozen at the pronuclear stage, 18 to 20 h after insemination. After thawing, embryos were allowed to develop until the required stage in a sequential culture system (G1/G2, Vitrolife AB, Goteborg, Sweden) system, at 37°C and 6% CO2. Embryos were monitored every 12 h to detect developmental progression. Once the embryos reached the appropriate stage of development, their zona pellucida (ZP) was removed by exposure to pronase (5mg/ml; Roche, Basel, Switzerland) at 37°C.,Dezoned oocytes and embryos were immediately plunged in 45 µl of Lysis Buffer (20 mM DTT, 10 mM TrisHCl, 0.5% SDS, 1 mg/ml Proteinase K) preheated at 65°C. The tube was maintained at 65°C for 15 minutes and placed at -80°C for later processing.	RNA from single oocytes and embryos was purified using RNA Clean XP bead suspension (Agencourt Bioscience, Beckman Coulter, Danvers, USA). Genomic DNA is bound by the beads but released in only a small percentage as long as it is not sheared (data not shown). Therefore, every effort was made to minimize shearing. RNA was eluted in 20 µl water. Different percentages of the RNA isolations were used for amplification, according to the expected RNA content of embryos. From MII, 2-cell, 4-cell, 6-cell and 8-10 cell embryos, the entire RNA preparation was used (20µl); from morulas, 6 µl were used; from blastocycsts 3 µl; from ESC, 4 µl. Library preparation were performed following the distributor’s (Sigma-Aldrich, St.Louis, USA) recommendations for WTA2. SYBR Green (Sigma-Aldrich, St.Louis, USA) was added to the amplification reaction, which was performed in a CFX Real-time instrument (Bio-Rad), to monitor yield. When the SYBR Green signal reached a plateau after 21 cycles, the reaction was stopped. Amplified cDNA was purified and quantified.	GSM726941	Hybridization, washing, staining and scanning of Affymetrix Human Gene ST 1.0 arrays were performed following the manufacturer’s recommendations.	biotin	10 µg cDNA was subsequently fragmented by DNAseI and biotinylated by terminal transferase (Affymetrix, Santa Clara, USA).	Jul 19 2011	total RNA	Homo sapiens	GPL6244	Scanned images (DAT files) were transformed into intensities (CEL files) by GCOS (Affymetrix, Santa Clara, USA).	GSE29397	8 to 10-cell stage human embryo	Public on Jul 19 2011	May 19 2011	ftp://ftp.ncbi.nlm.nih.gov/geo/samples/GSM726nnn/GSM726941/suppl/GSM726941_8_10C2.CEL.gz	9606	8 to 10-cell stage human embryo - rep2	RNA
GSM726942	1		morula stage human embryo			preimplantation embryo	Dr Aiguader 88	Barcelona	Spain	CMRB	Stephanie,,Boue	08003	Statistical analysis of the data was performed using the affy package in R (Gautier et al., 2004). Briefly, raw CEL files (which will be submitted to the GEO database upon manuscript acceptance) were imported with gene annotation from NetAffix and data was normalized with GCRMA and summarized at the gene level (32,321 genes). We performed gene expression profiles in 2 batches, and corrected for batch effect using the ComBat algorithm in R (Johnson et al., 2007).	32321	All embryos were frozen at the pronuclear stage, 18 to 20 h after insemination. After thawing, embryos were allowed to develop until the required stage in a sequential culture system (G1/G2, Vitrolife AB, Goteborg, Sweden) system, at 37°C and 6% CO2. Embryos were monitored every 12 h to detect developmental progression. Once the embryos reached the appropriate stage of development, their zona pellucida (ZP) was removed by exposure to pronase (5mg/ml; Roche, Basel, Switzerland) at 37°C.,Dezoned oocytes and embryos were immediately plunged in 45 µl of Lysis Buffer (20 mM DTT, 10 mM TrisHCl, 0.5% SDS, 1 mg/ml Proteinase K) preheated at 65°C. The tube was maintained at 65°C for 15 minutes and placed at -80°C for later processing.	RNA from single oocytes and embryos was purified using RNA Clean XP bead suspension (Agencourt Bioscience, Beckman Coulter, Danvers, USA). Genomic DNA is bound by the beads but released in only a small percentage as long as it is not sheared (data not shown). Therefore, every effort was made to minimize shearing. RNA was eluted in 20 µl water. Different percentages of the RNA isolations were used for amplification, according to the expected RNA content of embryos. From MII, 2-cell, 4-cell, 6-cell and 8-10 cell embryos, the entire RNA preparation was used (20µl); from morulas, 6 µl were used; from blastocycsts 3 µl; from ESC, 4 µl. Library preparation were performed following the distributor’s (Sigma-Aldrich, St.Louis, USA) recommendations for WTA2. SYBR Green (Sigma-Aldrich, St.Louis, USA) was added to the amplification reaction, which was performed in a CFX Real-time instrument (Bio-Rad), to monitor yield. When the SYBR Green signal reached a plateau after 21 cycles, the reaction was stopped. Amplified cDNA was purified and quantified.	GSM726942	Hybridization, washing, staining and scanning of Affymetrix Human Gene ST 1.0 arrays were performed following the manufacturer’s recommendations.	biotin	10 µg cDNA was subsequently fragmented by DNAseI and biotinylated by terminal transferase (Affymetrix, Santa Clara, USA).	Jul 19 2011	total RNA	Homo sapiens	GPL6244	Scanned images (DAT files) were transformed into intensities (CEL files) by GCOS (Affymetrix, Santa Clara, USA).	GSE29397	morula stage human embryo	Public on Jul 19 2011	May 19 2011	ftp://ftp.ncbi.nlm.nih.gov/geo/samples/GSM726nnn/GSM726942/suppl/GSM726942_M1.CEL.gz	9606	Morula stage human embryo - rep1	RNA
GSM726943	1		morula stage human embryo			preimplantation embryo	Dr Aiguader 88	Barcelona	Spain	CMRB	Stephanie,,Boue	08003	Statistical analysis of the data was performed using the affy package in R (Gautier et al., 2004). Briefly, raw CEL files (which will be submitted to the GEO database upon manuscript acceptance) were imported with gene annotation from NetAffix and data was normalized with GCRMA and summarized at the gene level (32,321 genes). We performed gene expression profiles in 2 batches, and corrected for batch effect using the ComBat algorithm in R (Johnson et al., 2007).	32321	All embryos were frozen at the pronuclear stage, 18 to 20 h after insemination. After thawing, embryos were allowed to develop until the required stage in a sequential culture system (G1/G2, Vitrolife AB, Goteborg, Sweden) system, at 37°C and 6% CO2. Embryos were monitored every 12 h to detect developmental progression. Once the embryos reached the appropriate stage of development, their zona pellucida (ZP) was removed by exposure to pronase (5mg/ml; Roche, Basel, Switzerland) at 37°C.,Dezoned oocytes and embryos were immediately plunged in 45 µl of Lysis Buffer (20 mM DTT, 10 mM TrisHCl, 0.5% SDS, 1 mg/ml Proteinase K) preheated at 65°C. The tube was maintained at 65°C for 15 minutes and placed at -80°C for later processing.	RNA from single oocytes and embryos was purified using RNA Clean XP bead suspension (Agencourt Bioscience, Beckman Coulter, Danvers, USA). Genomic DNA is bound by the beads but released in only a small percentage as long as it is not sheared (data not shown). Therefore, every effort was made to minimize shearing. RNA was eluted in 20 µl water. Different percentages of the RNA isolations were used for amplification, according to the expected RNA content of embryos. From MII, 2-cell, 4-cell, 6-cell and 8-10 cell embryos, the entire RNA preparation was used (20µl); from morulas, 6 µl were used; from blastocycsts 3 µl; from ESC, 4 µl. Library preparation were performed following the distributor’s (Sigma-Aldrich, St.Louis, USA) recommendations for WTA2. SYBR Green (Sigma-Aldrich, St.Louis, USA) was added to the amplification reaction, which was performed in a CFX Real-time instrument (Bio-Rad), to monitor yield. When the SYBR Green signal reached a plateau after 21 cycles, the reaction was stopped. Amplified cDNA was purified and quantified.	GSM726943	Hybridization, washing, staining and scanning of Affymetrix Human Gene ST 1.0 arrays were performed following the manufacturer’s recommendations.	biotin	10 µg cDNA was subsequently fragmented by DNAseI and biotinylated by terminal transferase (Affymetrix, Santa Clara, USA).	Jul 19 2011	total RNA	Homo sapiens	GPL6244	Scanned images (DAT files) were transformed into intensities (CEL files) by GCOS (Affymetrix, Santa Clara, USA).	GSE29397	morula stage human embryo	Public on Jul 19 2011	May 19 2011	ftp://ftp.ncbi.nlm.nih.gov/geo/samples/GSM726nnn/GSM726943/suppl/GSM726943_M2.CEL.gz	9606	Morula stage human embryo - rep2	RNA
GSM726944	1		morula stage human embryo			preimplantation embryo	Dr Aiguader 88	Barcelona	Spain	CMRB	Stephanie,,Boue	08003	Statistical analysis of the data was performed using the affy package in R (Gautier et al., 2004). Briefly, raw CEL files (which will be submitted to the GEO database upon manuscript acceptance) were imported with gene annotation from NetAffix and data was normalized with GCRMA and summarized at the gene level (32,321 genes). We performed gene expression profiles in 2 batches, and corrected for batch effect using the ComBat algorithm in R (Johnson et al., 2007).	32321	All embryos were frozen at the pronuclear stage, 18 to 20 h after insemination. After thawing, embryos were allowed to develop until the required stage in a sequential culture system (G1/G2, Vitrolife AB, Goteborg, Sweden) system, at 37°C and 6% CO2. Embryos were monitored every 12 h to detect developmental progression. Once the embryos reached the appropriate stage of development, their zona pellucida (ZP) was removed by exposure to pronase (5mg/ml; Roche, Basel, Switzerland) at 37°C.,Dezoned oocytes and embryos were immediately plunged in 45 µl of Lysis Buffer (20 mM DTT, 10 mM TrisHCl, 0.5% SDS, 1 mg/ml Proteinase K) preheated at 65°C. The tube was maintained at 65°C for 15 minutes and placed at -80°C for later processing.	RNA from single oocytes and embryos was purified using RNA Clean XP bead suspension (Agencourt Bioscience, Beckman Coulter, Danvers, USA). Genomic DNA is bound by the beads but released in only a small percentage as long as it is not sheared (data not shown). Therefore, every effort was made to minimize shearing. RNA was eluted in 20 µl water. Different percentages of the RNA isolations were used for amplification, according to the expected RNA content of embryos. From MII, 2-cell, 4-cell, 6-cell and 8-10 cell embryos, the entire RNA preparation was used (20µl); from morulas, 6 µl were used; from blastocycsts 3 µl; from ESC, 4 µl. Library preparation were performed following the distributor’s (Sigma-Aldrich, St.Louis, USA) recommendations for WTA2. SYBR Green (Sigma-Aldrich, St.Louis, USA) was added to the amplification reaction, which was performed in a CFX Real-time instrument (Bio-Rad), to monitor yield. When the SYBR Green signal reached a plateau after 21 cycles, the reaction was stopped. Amplified cDNA was purified and quantified.	GSM726944	Hybridization, washing, staining and scanning of Affymetrix Human Gene ST 1.0 arrays were performed following the manufacturer’s recommendations.	biotin	10 µg cDNA was subsequently fragmented by DNAseI and biotinylated by terminal transferase (Affymetrix, Santa Clara, USA).	Jul 19 2011	total RNA	Homo sapiens	GPL6244	Scanned images (DAT files) were transformed into intensities (CEL files) by GCOS (Affymetrix, Santa Clara, USA).	GSE29397	morula stage human embryo	Public on Jul 19 2011	May 19 2011	ftp://ftp.ncbi.nlm.nih.gov/geo/samples/GSM726nnn/GSM726944/suppl/GSM726944_M3.CEL.gz	9606	Morula stage human embryo - rep3	RNA
GSM726945	1		blastocyst stage human embryo			preimplantation embryo	Dr Aiguader 88	Barcelona	Spain	CMRB	Stephanie,,Boue	08003	Statistical analysis of the data was performed using the affy package in R (Gautier et al., 2004). Briefly, raw CEL files (which will be submitted to the GEO database upon manuscript acceptance) were imported with gene annotation from NetAffix and data was normalized with GCRMA and summarized at the gene level (32,321 genes). We performed gene expression profiles in 2 batches, and corrected for batch effect using the ComBat algorithm in R (Johnson et al., 2007).	32321	All embryos were frozen at the pronuclear stage, 18 to 20 h after insemination. After thawing, embryos were allowed to develop until the required stage in a sequential culture system (G1/G2, Vitrolife AB, Goteborg, Sweden) system, at 37°C and 6% CO2. Embryos were monitored every 12 h to detect developmental progression. Once the embryos reached the appropriate stage of development, their zona pellucida (ZP) was removed by exposure to pronase (5mg/ml; Roche, Basel, Switzerland) at 37°C.,Dezoned oocytes and embryos were immediately plunged in 45 µl of Lysis Buffer (20 mM DTT, 10 mM TrisHCl, 0.5% SDS, 1 mg/ml Proteinase K) preheated at 65°C. The tube was maintained at 65°C for 15 minutes and placed at -80°C for later processing.	RNA from single oocytes and embryos was purified using RNA Clean XP bead suspension (Agencourt Bioscience, Beckman Coulter, Danvers, USA). Genomic DNA is bound by the beads but released in only a small percentage as long as it is not sheared (data not shown). Therefore, every effort was made to minimize shearing. RNA was eluted in 20 µl water. Different percentages of the RNA isolations were used for amplification, according to the expected RNA content of embryos. From MII, 2-cell, 4-cell, 6-cell and 8-10 cell embryos, the entire RNA preparation was used (20µl); from morulas, 6 µl were used; from blastocycsts 3 µl; from ESC, 4 µl. Library preparation were performed following the distributor’s (Sigma-Aldrich, St.Louis, USA) recommendations for WTA2. SYBR Green (Sigma-Aldrich, St.Louis, USA) was added to the amplification reaction, which was performed in a CFX Real-time instrument (Bio-Rad), to monitor yield. When the SYBR Green signal reached a plateau after 21 cycles, the reaction was stopped. Amplified cDNA was purified and quantified.	GSM726945	Hybridization, washing, staining and scanning of Affymetrix Human Gene ST 1.0 arrays were performed following the manufacturer’s recommendations.	biotin	10 µg cDNA was subsequently fragmented by DNAseI and biotinylated by terminal transferase (Affymetrix, Santa Clara, USA).	Jul 19 2011	total RNA	Homo sapiens	GPL6244	Scanned images (DAT files) were transformed into intensities (CEL files) by GCOS (Affymetrix, Santa Clara, USA).	GSE29397	blastocyst stage human embryo	Public on Jul 19 2011	May 19 2011	ftp://ftp.ncbi.nlm.nih.gov/geo/samples/GSM726nnn/GSM726945/suppl/GSM726945_BL1.CEL.gz	9606	Blastocyst stage human embryo - rep1	RNA
GSM726946	1		blastocyst stage human embryo			preimplantation embryo	Dr Aiguader 88	Barcelona	Spain	CMRB	Stephanie,,Boue	08003	Statistical analysis of the data was performed using the affy package in R (Gautier et al., 2004). Briefly, raw CEL files (which will be submitted to the GEO database upon manuscript acceptance) were imported with gene annotation from NetAffix and data was normalized with GCRMA and summarized at the gene level (32,321 genes). We performed gene expression profiles in 2 batches, and corrected for batch effect using the ComBat algorithm in R (Johnson et al., 2007).	32321	All embryos were frozen at the pronuclear stage, 18 to 20 h after insemination. After thawing, embryos were allowed to develop until the required stage in a sequential culture system (G1/G2, Vitrolife AB, Goteborg, Sweden) system, at 37°C and 6% CO2. Embryos were monitored every 12 h to detect developmental progression. Once the embryos reached the appropriate stage of development, their zona pellucida (ZP) was removed by exposure to pronase (5mg/ml; Roche, Basel, Switzerland) at 37°C.,Dezoned oocytes and embryos were immediately plunged in 45 µl of Lysis Buffer (20 mM DTT, 10 mM TrisHCl, 0.5% SDS, 1 mg/ml Proteinase K) preheated at 65°C. The tube was maintained at 65°C for 15 minutes and placed at -80°C for later processing.	RNA from single oocytes and embryos was purified using RNA Clean XP bead suspension (Agencourt Bioscience, Beckman Coulter, Danvers, USA). Genomic DNA is bound by the beads but released in only a small percentage as long as it is not sheared (data not shown). Therefore, every effort was made to minimize shearing. RNA was eluted in 20 µl water. Different percentages of the RNA isolations were used for amplification, according to the expected RNA content of embryos. From MII, 2-cell, 4-cell, 6-cell and 8-10 cell embryos, the entire RNA preparation was used (20µl); from morulas, 6 µl were used; from blastocycsts 3 µl; from ESC, 4 µl. Library preparation were performed following the distributor’s (Sigma-Aldrich, St.Louis, USA) recommendations for WTA2. SYBR Green (Sigma-Aldrich, St.Louis, USA) was added to the amplification reaction, which was performed in a CFX Real-time instrument (Bio-Rad), to monitor yield. When the SYBR Green signal reached a plateau after 21 cycles, the reaction was stopped. Amplified cDNA was purified and quantified.	GSM726946	Hybridization, washing, staining and scanning of Affymetrix Human Gene ST 1.0 arrays were performed following the manufacturer’s recommendations.	biotin	10 µg cDNA was subsequently fragmented by DNAseI and biotinylated by terminal transferase (Affymetrix, Santa Clara, USA).	Jul 19 2011	total RNA	Homo sapiens	GPL6244	Scanned images (DAT files) were transformed into intensities (CEL files) by GCOS (Affymetrix, Santa Clara, USA).	GSE29397	blastocyst stage human embryo	Public on Jul 19 2011	May 19 2011	ftp://ftp.ncbi.nlm.nih.gov/geo/samples/GSM726nnn/GSM726946/suppl/GSM726946_BL2.CEL.gz	9606	Blastocyst stage human embryo - rep2	RNA
GSM726947	1		blastocyst stage human embryo			preimplantation embryo	Dr Aiguader 88	Barcelona	Spain	CMRB	Stephanie,,Boue	08003	Statistical analysis of the data was performed using the affy package in R (Gautier et al., 2004). Briefly, raw CEL files (which will be submitted to the GEO database upon manuscript acceptance) were imported with gene annotation from NetAffix and data was normalized with GCRMA and summarized at the gene level (32,321 genes). We performed gene expression profiles in 2 batches, and corrected for batch effect using the ComBat algorithm in R (Johnson et al., 2007).	32321	All embryos were frozen at the pronuclear stage, 18 to 20 h after insemination. After thawing, embryos were allowed to develop until the required stage in a sequential culture system (G1/G2, Vitrolife AB, Goteborg, Sweden) system, at 37°C and 6% CO2. Embryos were monitored every 12 h to detect developmental progression. Once the embryos reached the appropriate stage of development, their zona pellucida (ZP) was removed by exposure to pronase (5mg/ml; Roche, Basel, Switzerland) at 37°C.,Dezoned oocytes and embryos were immediately plunged in 45 µl of Lysis Buffer (20 mM DTT, 10 mM TrisHCl, 0.5% SDS, 1 mg/ml Proteinase K) preheated at 65°C. The tube was maintained at 65°C for 15 minutes and placed at -80°C for later processing.	RNA from single oocytes and embryos was purified using RNA Clean XP bead suspension (Agencourt Bioscience, Beckman Coulter, Danvers, USA). Genomic DNA is bound by the beads but released in only a small percentage as long as it is not sheared (data not shown). Therefore, every effort was made to minimize shearing. RNA was eluted in 20 µl water. Different percentages of the RNA isolations were used for amplification, according to the expected RNA content of embryos. From MII, 2-cell, 4-cell, 6-cell and 8-10 cell embryos, the entire RNA preparation was used (20µl); from morulas, 6 µl were used; from blastocycsts 3 µl; from ESC, 4 µl. Library preparation were performed following the distributor’s (Sigma-Aldrich, St.Louis, USA) recommendations for WTA2. SYBR Green (Sigma-Aldrich, St.Louis, USA) was added to the amplification reaction, which was performed in a CFX Real-time instrument (Bio-Rad), to monitor yield. When the SYBR Green signal reached a plateau after 21 cycles, the reaction was stopped. Amplified cDNA was purified and quantified.	GSM726947	Hybridization, washing, staining and scanning of Affymetrix Human Gene ST 1.0 arrays were performed following the manufacturer’s recommendations.	biotin	10 µg cDNA was subsequently fragmented by DNAseI and biotinylated by terminal transferase (Affymetrix, Santa Clara, USA).	Jul 19 2011	total RNA	Homo sapiens	GPL6244	Scanned images (DAT files) were transformed into intensities (CEL files) by GCOS (Affymetrix, Santa Clara, USA).	GSE29397	blastocyst stage human embryo	Public on Jul 19 2011	May 19 2011	ftp://ftp.ncbi.nlm.nih.gov/geo/samples/GSM726nnn/GSM726947/suppl/GSM726947_BL3.CEL.gz	9606	Blastocyst stage human embryo - rep3	RNA
GSM726948	1	Embryonic Stem Cell lines		3 embryonic stem cell lines (see Raya et al. 2008)			Dr Aiguader 88	Barcelona	Spain	CMRB	Stephanie,,Boue	08003	Statistical analysis of the data was performed using the affy package in R (Gautier et al., 2004). Briefly, raw CEL files (which will be submitted to the GEO database upon manuscript acceptance) were imported with gene annotation from NetAffix and data was normalized with GCRMA and summarized at the gene level (32,321 genes). We performed gene expression profiles in 2 batches, and corrected for batch effect using the ComBat algorithm in R (Johnson et al., 2007).	32321	Three hESC lines were used: ES[2], ES[3], and ES[4]. All lines were derived as published (Aran et al., ; Raya et al., 2008) at the CMR[B]. One vial for each line at low passage was thawed and cultured for one passage over a feeder layer of human foreskin fibroblasts (HFFs; CCD1112Sk ATCC, Manassas, USA) in hES medium at 37°C and 5% CO2. The composition of hES medium is: KO-DMEM (Invitrogen, Carsbad, USA), 20% KO serum replacement (Invitrogen, Carsbad, USA), Glutamax (2 mmol/l; Invitrogen, Carsbad, USA), penicillin-streptomycin, non essential amino acids (Lonza, Verviers, Belgium), 2-mercaptoethanol (0.05 mmol/l, Invitrogen, Carsbad, USA), and basic fibroblast growth factor (bFGF, 10 ng/m; Invitrogen, Carsbad, USA). To avoid contamination of the cell ES sample by HFFs by whole colony trypsinization, a clump of approximately 50-100 ES cells was mechanically dislodged from a colony and processed as described.	RNA from single oocytes and embryos was purified using RNA Clean XP bead suspension (Agencourt Bioscience, Beckman Coulter, Danvers, USA). Genomic DNA is bound by the beads but released in only a small percentage as long as it is not sheared (data not shown). Therefore, every effort was made to minimize shearing. RNA was eluted in 20 µl water. Different percentages of the RNA isolations were used for amplification, according to the expected RNA content of embryos. From MII, 2-cell, 4-cell, 6-cell and 8-10 cell embryos, the entire RNA preparation was used (20µl); from morulas, 6 µl were used; from blastocycsts 3 µl; from ESC, 4 µl. Library preparation were performed following the distributor’s (Sigma-Aldrich, St.Louis, USA) recommendations for WTA2. SYBR Green (Sigma-Aldrich, St.Louis, USA) was added to the amplification reaction, which was performed in a CFX Real-time instrument (Bio-Rad), to monitor yield. When the SYBR Green signal reached a plateau after 21 cycles, the reaction was stopped. Amplified cDNA was purified and quantified.	GSM726948	Hybridization, washing, staining and scanning of Affymetrix Human Gene ST 1.0 arrays were performed following the manufacturer’s recommendations.	biotin	10 µg cDNA was subsequently fragmented by DNAseI and biotinylated by terminal transferase (Affymetrix, Santa Clara, USA).	Jul 19 2011	total RNA	Homo sapiens	GPL6244	Scanned images (DAT files) were transformed into intensities (CEL files) by GCOS (Affymetrix, Santa Clara, USA).	GSE29397	Embryonic Stem Cell line	Public on Jul 19 2011	May 19 2011	ftp://ftp.ncbi.nlm.nih.gov/geo/samples/GSM726nnn/GSM726948/suppl/GSM726948_STC1.CEL.gz	9606	Embryonic Stem Cell line - rep1	RNA
GSM726949	1	Embryonic Stem Cell lines		3 embryonic stem cell lines (see Raya et al. 2008)			Dr Aiguader 88	Barcelona	Spain	CMRB	Stephanie,,Boue	08003	Statistical analysis of the data was performed using the affy package in R (Gautier et al., 2004). Briefly, raw CEL files (which will be submitted to the GEO database upon manuscript acceptance) were imported with gene annotation from NetAffix and data was normalized with GCRMA and summarized at the gene level (32,321 genes). We performed gene expression profiles in 2 batches, and corrected for batch effect using the ComBat algorithm in R (Johnson et al., 2007).	32321	Three hESC lines were used: ES[2], ES[3], and ES[4]. All lines were derived as published (Aran et al., ; Raya et al., 2008) at the CMR[B]. One vial for each line at low passage was thawed and cultured for one passage over a feeder layer of human foreskin fibroblasts (HFFs; CCD1112Sk ATCC, Manassas, USA) in hES medium at 37°C and 5% CO2. The composition of hES medium is: KO-DMEM (Invitrogen, Carsbad, USA), 20% KO serum replacement (Invitrogen, Carsbad, USA), Glutamax (2 mmol/l; Invitrogen, Carsbad, USA), penicillin-streptomycin, non essential amino acids (Lonza, Verviers, Belgium), 2-mercaptoethanol (0.05 mmol/l, Invitrogen, Carsbad, USA), and basic fibroblast growth factor (bFGF, 10 ng/m; Invitrogen, Carsbad, USA). To avoid contamination of the cell ES sample by HFFs by whole colony trypsinization, a clump of approximately 50-100 ES cells was mechanically dislodged from a colony and processed as described.	RNA from single oocytes and embryos was purified using RNA Clean XP bead suspension (Agencourt Bioscience, Beckman Coulter, Danvers, USA). Genomic DNA is bound by the beads but released in only a small percentage as long as it is not sheared (data not shown). Therefore, every effort was made to minimize shearing. RNA was eluted in 20 µl water. Different percentages of the RNA isolations were used for amplification, according to the expected RNA content of embryos. From MII, 2-cell, 4-cell, 6-cell and 8-10 cell embryos, the entire RNA preparation was used (20µl); from morulas, 6 µl were used; from blastocycsts 3 µl; from ESC, 4 µl. Library preparation were performed following the distributor’s (Sigma-Aldrich, St.Louis, USA) recommendations for WTA2. SYBR Green (Sigma-Aldrich, St.Louis, USA) was added to the amplification reaction, which was performed in a CFX Real-time instrument (Bio-Rad), to monitor yield. When the SYBR Green signal reached a plateau after 21 cycles, the reaction was stopped. Amplified cDNA was purified and quantified.	GSM726949	Hybridization, washing, staining and scanning of Affymetrix Human Gene ST 1.0 arrays were performed following the manufacturer’s recommendations.	biotin	10 µg cDNA was subsequently fragmented by DNAseI and biotinylated by terminal transferase (Affymetrix, Santa Clara, USA).	Jul 19 2011	total RNA	Homo sapiens	GPL6244	Scanned images (DAT files) were transformed into intensities (CEL files) by GCOS (Affymetrix, Santa Clara, USA).	GSE29397	Embryonic Stem Cell line	Public on Jul 19 2011	May 19 2011	ftp://ftp.ncbi.nlm.nih.gov/geo/samples/GSM726nnn/GSM726949/suppl/GSM726949_STC2_1.CEL.gz	9606	Embryonic Stem Cell line - rep2	RNA
GSM726950	1	Embryonic Stem Cell lines		3 embryonic stem cell lines (see Raya et al. 2008)			Dr Aiguader 88	Barcelona	Spain	CMRB	Stephanie,,Boue	08003	Statistical analysis of the data was performed using the affy package in R (Gautier et al., 2004). Briefly, raw CEL files (which will be submitted to the GEO database upon manuscript acceptance) were imported with gene annotation from NetAffix and data was normalized with GCRMA and summarized at the gene level (32,321 genes). We performed gene expression profiles in 2 batches, and corrected for batch effect using the ComBat algorithm in R (Johnson et al., 2007).	32321	Three hESC lines were used: ES[2], ES[3], and ES[4]. All lines were derived as published (Aran et al., ; Raya et al., 2008) at the CMR[B]. One vial for each line at low passage was thawed and cultured for one passage over a feeder layer of human foreskin fibroblasts (HFFs; CCD1112Sk ATCC, Manassas, USA) in hES medium at 37°C and 5% CO2. The composition of hES medium is: KO-DMEM (Invitrogen, Carsbad, USA), 20% KO serum replacement (Invitrogen, Carsbad, USA), Glutamax (2 mmol/l; Invitrogen, Carsbad, USA), penicillin-streptomycin, non essential amino acids (Lonza, Verviers, Belgium), 2-mercaptoethanol (0.05 mmol/l, Invitrogen, Carsbad, USA), and basic fibroblast growth factor (bFGF, 10 ng/m; Invitrogen, Carsbad, USA). To avoid contamination of the cell ES sample by HFFs by whole colony trypsinization, a clump of approximately 50-100 ES cells was mechanically dislodged from a colony and processed as described.	RNA from single oocytes and embryos was purified using RNA Clean XP bead suspension (Agencourt Bioscience, Beckman Coulter, Danvers, USA). Genomic DNA is bound by the beads but released in only a small percentage as long as it is not sheared (data not shown). Therefore, every effort was made to minimize shearing. RNA was eluted in 20 µl water. Different percentages of the RNA isolations were used for amplification, according to the expected RNA content of embryos. From MII, 2-cell, 4-cell, 6-cell and 8-10 cell embryos, the entire RNA preparation was used (20µl); from morulas, 6 µl were used; from blastocycsts 3 µl; from ESC, 4 µl. Library preparation were performed following the distributor’s (Sigma-Aldrich, St.Louis, USA) recommendations for WTA2. SYBR Green (Sigma-Aldrich, St.Louis, USA) was added to the amplification reaction, which was performed in a CFX Real-time instrument (Bio-Rad), to monitor yield. When the SYBR Green signal reached a plateau after 21 cycles, the reaction was stopped. Amplified cDNA was purified and quantified.	GSM726950	Hybridization, washing, staining and scanning of Affymetrix Human Gene ST 1.0 arrays were performed following the manufacturer’s recommendations.	biotin	10 µg cDNA was subsequently fragmented by DNAseI and biotinylated by terminal transferase (Affymetrix, Santa Clara, USA).	Jul 19 2011	total RNA	Homo sapiens	GPL6244	Scanned images (DAT files) were transformed into intensities (CEL files) by GCOS (Affymetrix, Santa Clara, USA).	GSE29397	Embryonic Stem Cell line	Public on Jul 19 2011	May 19 2011	ftp://ftp.ncbi.nlm.nih.gov/geo/samples/GSM726nnn/GSM726950/suppl/GSM726950_STC2_2.CEL.gz	9606	Embryonic Stem Cell line - rep3	RNA
GSM726951	1	Embryonic Stem Cell lines		3 embryonic stem cell lines (see Raya et al. 2008)			Dr Aiguader 88	Barcelona	Spain	CMRB	Stephanie,,Boue	08003	Statistical analysis of the data was performed using the affy package in R (Gautier et al., 2004). Briefly, raw CEL files (which will be submitted to the GEO database upon manuscript acceptance) were imported with gene annotation from NetAffix and data was normalized with GCRMA and summarized at the gene level (32,321 genes). We performed gene expression profiles in 2 batches, and corrected for batch effect using the ComBat algorithm in R (Johnson et al., 2007).	32321	Three hESC lines were used: ES[2], ES[3], and ES[4]. All lines were derived as published (Aran et al., ; Raya et al., 2008) at the CMR[B]. One vial for each line at low passage was thawed and cultured for one passage over a feeder layer of human foreskin fibroblasts (HFFs; CCD1112Sk ATCC, Manassas, USA) in hES medium at 37°C and 5% CO2. The composition of hES medium is: KO-DMEM (Invitrogen, Carsbad, USA), 20% KO serum replacement (Invitrogen, Carsbad, USA), Glutamax (2 mmol/l; Invitrogen, Carsbad, USA), penicillin-streptomycin, non essential amino acids (Lonza, Verviers, Belgium), 2-mercaptoethanol (0.05 mmol/l, Invitrogen, Carsbad, USA), and basic fibroblast growth factor (bFGF, 10 ng/m; Invitrogen, Carsbad, USA). To avoid contamination of the cell ES sample by HFFs by whole colony trypsinization, a clump of approximately 50-100 ES cells was mechanically dislodged from a colony and processed as described.	RNA from single oocytes and embryos was purified using RNA Clean XP bead suspension (Agencourt Bioscience, Beckman Coulter, Danvers, USA). Genomic DNA is bound by the beads but released in only a small percentage as long as it is not sheared (data not shown). Therefore, every effort was made to minimize shearing. RNA was eluted in 20 µl water. Different percentages of the RNA isolations were used for amplification, according to the expected RNA content of embryos. From MII, 2-cell, 4-cell, 6-cell and 8-10 cell embryos, the entire RNA preparation was used (20µl); from morulas, 6 µl were used; from blastocycsts 3 µl; from ESC, 4 µl. Library preparation were performed following the distributor’s (Sigma-Aldrich, St.Louis, USA) recommendations for WTA2. SYBR Green (Sigma-Aldrich, St.Louis, USA) was added to the amplification reaction, which was performed in a CFX Real-time instrument (Bio-Rad), to monitor yield. When the SYBR Green signal reached a plateau after 21 cycles, the reaction was stopped. Amplified cDNA was purified and quantified.	GSM726951	Hybridization, washing, staining and scanning of Affymetrix Human Gene ST 1.0 arrays were performed following the manufacturer’s recommendations.	biotin	10 µg cDNA was subsequently fragmented by DNAseI and biotinylated by terminal transferase (Affymetrix, Santa Clara, USA).	Jul 19 2011	total RNA	Homo sapiens	GPL6244	Scanned images (DAT files) were transformed into intensities (CEL files) by GCOS (Affymetrix, Santa Clara, USA).	GSE29397	Embryonic Stem Cell line	Public on Jul 19 2011	May 19 2011	ftp://ftp.ncbi.nlm.nih.gov/geo/samples/GSM726nnn/GSM726951/suppl/GSM726951_STC3.CEL.gz	9606	Embryonic Stem Cell line - rep4	RNA
